2024-04-05_FCSC-2024/05. hardware/Very Cute Data/challenge_files/very-cute-data.vcd
$timescale 1ns $end
$scope module logic $end
$var wire 1 ! D0 $end
$var wire 1 " D1 $end
$upscope $end
$enddefinitions $end
#0
1!
#0
1"
#22875
0"
#27312
0!
#38375
1"
#44375
1!
#50250
0!
#54937
0"
#71437
1"
#76125
0"
#87187
1"
#91875
0"
#98250
1!
#103062
1"
#107750
0"
#114000
0!
#118812
1"
#123500
0"
#134562
1"
#139250
0"
#150312
1"
#155000
0"
#161375
1!
#166187
1"
#170875
0"
#177125
0!
#181937
1"
#186562
0"
#192562
1!
#197187
1"
#308000
0!
#362687
0"
#373187
1"
#379375
1!
#396500
0!
#401187
0"
#417750
1"
#422437
0"
#433500
1"
#438187
0"
#449250
1"
#453937
0"
#465000
1"
#469687
0"
#480750
1"
#485437
0"
#496500
1"
#501187
0"
#507562
1!
#512375
1"
#517062
0"
#528250
1"
#532875
0"
#543500
1"
#654312
0!
#709312
0"
#720375
1"
#725062
0"
#736125
1"
#740812
0"
#751875
1"
#756562
0"
#767625
1"
#772312
0"
#783375
1"
#788062
0"
#799125
1"
#803812
0"
#814875
1"
#819562
0"
#830625
1"
#835250
0"
#841250
1!
#845875
1"
#956687
0!
#1011374
0"
#1021875
1"
#1028062
1!
#1045187
0!
#1049875
0"
#1072437
1"
#1077125
0"
#1088187
1"
#1092875
0"
#1103937
1"
#1108625
0"
#1119687
1"
#1124375
0"
#1135437
1"
#1140125
0"
#1151187
1"
#1155875
0"
#1166937
1"
#1171625
0"
#1182687
1"
#1187312
0"
#1193312
1!
#1197937
1"
#1308750
0!
#1363625
0"
#1374125
1"
#1380312
1!
#1398625
0!
#1403312
0"
#1419812
1"
#1424500
0"
#1435562
1"
#1440250
0"
#1446625
1!
#1451437
1"
#1456125
0"
#1462375
0!
#1467187
1"
#1471875
0"
#1482937
1"
#1487625
0"
#1498687
1"
#1503375
0"
#1509750
1!
#1514562
1"
#1519250
0"
#1525500
0!
#1530312
1"
#1534937
0"
#1540937
1!
#1545562
1"
#1656375
0!
#1711062
0"
#1721562
1"
#1727750
1!
#1744875
0!
#1749562
0"
#1761437
1!
#1766250
1"
#1770937
0"
#1777187
0!
#1782000
1"
#1786687
0"
#1797750
1"
#1802437
0"
#1813500
1"
#1818187
0"
#1829250
1"
#1833937
0"
#1845000
1"
#1849687
0"
#1856062
1!
#1860875
1"
#1865562
0"
#1876750
1"
#1881375
0"
#1892000
1"
#2002812
0!
#2057812
0"
#2068875
1"
#2073562
0"
#2090625
1"
#2095312
0"
#2106375
1"
#2111062
0"
#2122125
1"
#2126812
0"
#2137875
1"
#2142562
0"
#2153625
1"
#2158312
0"
#2169375
1"
#2174062
0"
#2185125
1"
#2189750
0"
#2195750
1!
#2200375
1"
#2311187
0!
#2365875
0"
#2376375
1"
#2382562
1!
#2399687
0!
#2404375
0"
#2420937
1"
#2425625
0"
#2436687
1"
#2441375
0"
#2452437
1"
#2457125
0"
#2468187
1"
#2472875
0"
#2483937
1"
#2488625
0"
#2499687
1"
#2504375
0"
#2515437
1"
#2520125
0"
#2531187
1"
#2535812
0"
#2541812
1!
#2546437
1"
#2657250
0!
#2712125
0"
#2722625
1"
#2728812
1!
#2747125
0!
#2751812
0"
#2768312
1"
#2773000
0"
#2784062
1"
#2788750
0"
#2795125
1!
#2799937
1"
#2804625
0"
#2810875
0!
#2815687
1"
#2820375
0"
#2831437
1"
#2836125
0"
#2847187
1"
#2851875
0"
#2858250
1!
#2863062
1"
#2867750
0"
#2874000
0!
#2878812
1"
#2883437
0"
#2889437
1!
#2894062
1"
#3004875
0!
#3059562
0"
#3070062
1"
#3076250
1!
#3093375
0!
#3098062
0"
#3120625
1"
#3125312
0"
#3131687
1!
#3136500
1"
#3141187
0"
#3147437
0!
#3152250
1"
#3156937
0"
#3168000
1"
#3172687
0"
#3183750
1"
#3188437
0"
#3199500
1"
#3204187
0"
#3210562
1!
#3215375
1"
#3220062
0"
#3231250
1"
#3235875
0"
#3246500
1"
#3357312
0!
#3412312
0"
#3423375
1"
#3428062
0"
#3439125
1"
#3443812
0"
#3454875
1"
#3459562
0"
#3470625
1"
#3475312
0"
#3486375
1"
#3491062
0"
#3502125
1"
#3506812
0"
#3517875
1"
#3522562
0"
#3533625
1"
#3538250
0"
#3544250
1!
#3548875
1"
#3659687
0!
#3714375
0"
#3724875
1"
#3731062
1!
#3748187
0!
#3752875
0"
#3769437
1"
#3774125
0"
#3785187
1"
#3789875
0"
#3800937
1"
#3805625
0"
#3816687
1"
#3821375
0"
#3832437
1"
#3837125
0"
#3848187
1"
#3852875
0"
#3863937
1"
#3868625
0"
#3879687
1"
#3884312
0"
#3890312
1!
#3894937
1"
#4005749
0!
#4060625
0"
#4071125
1"
#4077312
1!
#4095625
0!
#4100312
0"
#4116812
1"
#4121500
0"
#4138562
1"
#4143250
0"
#4149624
1!
#4154437
1"
#4159124
0"
#4165375
0!
#4170187
1"
#4174874
0"
#4185937
1"
#4190625
0"
#4201687
1"
#4206375
0"
#4212750
1!
#4217562
1"
#4222250
0"
#4228500
0!
#4233312
1"
#4237937
0"
#4243937
1!
#4248562
1"
#4359375
0!
#4414062
0"
#4424562
1"
#4430750
1!
#4447875
0!
#4452562
0"
#4464437
1!
#4469250
1"
#4473937
0"
#4485125
1"
#4489812
0"
#4496062
0!
#4500875
1"
#4505562
0"
#4516625
1"
#4521312
0"
#4532375
1"
#4537062
0"
#4548125
1"
#4552812
0"
#4559187
1!
#4564000
1"
#4568687
0"
#4579875
1"
#4584500
0"
#4595125
1"
#4705937
0!
#4760937
0"
#4772000
1"
#4776687
0"
#4787750
1"
#4792437
0"
#4803500
1"
#4808187
0"
#4819250
1"
#4823937
0"
#4835000
1"
#4839687
0"
#4850750
1"
#4855437
0"
#4866500
1"
#4871187
0"
#4882250
1"
#4886875
0"
#4892875
1!
#4897500
1"
#5008312
0!
#5063000
0"
#5073500
1"
#5079687
1!
#5096812
0!
#5101500
0"
#5118062
1"
#5122750
0"
#5133812
1"
#5138500
0"
#5149562
1"
#5160250
0"
#5171312
1"
#5176000
0"
#5187062
1"
#5191750
0"
#5202812
1"
#5207500
0"
#5218562
1"
#5223250
0"
#5234312
1"
#5238937
0"
#5244937
1!
#5249562
1"
#5360375
0!
#5415250
0"
#5425750
1"
#5431937
1!
#5477125
0!
#5481812
0"
#5498312
1"
#5503000
0"
#5514062
1"
#5518750
0"
#5525125
1!
#5529937
1"
#5534625
0"
#5540875
0!
#5545687
1"
#5550375
0"
#5561437
1"
#5566125
0"
#5577187
1"
#5581875
0"
#5588250
1!
#5593062
1"
#5597750
0"
#5604000
0!
#5608812
1"
#5613437
0"
#5619437
1!
#5624062
1"
#5734875
0!
#5789562
0"
#5800062
1"
#5806250
1!
#5823375
0!
#5828062
0"
#5844625
1"
#5849312
0"
#5860375
1"
#5865062
0"
#5876125
1"
#5880812
0"
#5891875
1"
#5896562
0"
#5907625
1"
#5912312
0"
#5923375
1"
#5928062
0"
#5934437
1!
#5939250
1"
#5943937
0"
#5955125
1"
#5959750
0"
#5970375
1"
#6081187
0!
#6136187
0"
#6142562
1!
#6147375
1"
#6152062
0"
#6163250
1"
#6167937
0"
#6185125
1"
#6189812
0"
#6201000
1"
#6205687
0"
#6216875
1"
#6221562
0"
#6232750
1"
#6237437
0"
#6243687
0!
#6248500
1"
#6253187
0"
#6264250
1"
#6268875
0"
#6274875
1!
#6279500
1"
#6390312
0!
#6445000
0"
#6455500
1"
#6461687
1!
#6478812
0!
#6483500
0"
#6500062
1"
#6504750
0"
#6511125
1!
#6515937
1"
#6520625
0"
#6526875
0!
#6531687
1"
#6536375
0"
#6542750
1!
#6547562
1"
#6552250
0"
#6558500
0!
#6563312
1"
#6568000
0"
#6579062
1"
#6583750
0"
#6594812
1"
#6599500
0"
#6605875
1!
#6610687
1"
#6615312
0"
#6625937
1"
#6736750
0!
#6791625
0"
#6802125
1"
#6808312
1!
#6851937
0!
#6856625
0"
#6873125
1"
#6877812
0"
#6888875
1"
#6893562
0"
#6899937
1!
#6904750
1"
#6909437
0"
#6915687
0!
#6920500
1"
#6925187
0"
#6936250
1"
#6940937
0"
#6952000
1"
#6956687
0"
#6963062
1!
#6967875
1"
#6972562
0"
#6978812
0!
#6983625
1"
#6988250
0"
#6994250
1!
#6998875
1"
#7109687
0!
#7164375
0"
#7174875
1"
#7181062
1!
#7204187
0!
#7208875
0"
#7220750
1!
#7225562
1"
#7230250
0"
#7236500
0!
#7241312
1"
#7246000
0"
#7257062
1"
#7261750
0"
#7272812
1"
#7277500
0"
#7288562
1"
#7293250
0"
#7304312
1"
#7309000
0"
#7315375
1!
#7320187
1"
#7324875
0"
#7336062
1"
#7340687
0"
#7351312
1"
#7462125
0!
#7517125
0"
#7523500
1!
#7528312
1"
#7533000
0"
#7544187
1"
#7548875
0"
#7560062
1"
#7564750
0"
#7575937
1"
#7580625
0"
#7591812
1"
#7596500
0"
#7607687
1"
#7612375
0"
#7618625
0!
#7623437
1"
#7628125
0"
#7639187
1"
#7643812
0"
#7649812
1!
#7654437
1"
#7765250
0!
#7819937
0"
#7830437
1"
#7836625
1!
#7853750
0!
#7858437
0"
#7875000
1"
#7879687
0"
#7886062
1!
#7890875
1"
#7895562
0"
#7901812
0!
#7906625
1"
#7911312
0"
#7917687
1!
#7922500
1"
#7927187
0"
#7933437
0!
#7938250
1"
#7942937
0"
#7953999
1"
#7958687
0"
#7969749
1"
#7974437
0"
#7980812
1!
#7985625
1"
#7990250
0"
#8000874
1"
#8111687
0!
#8166562
0"
#8177062
1"
#8183250
1!
#8232937
0!
#8237625
0"
#8254124
1"
#8258812
0"
#8269874
1"
#8274562
0"
#8280937
1!
#8285750
1"
#8290437
0"
#8296687
0!
#8301500
1"
#8306187
0"
#8317250
1"
#8321937
0"
#8333000
1"
#8337687
0"
#8344062
1!
#8348875
1"
#8353562
0"
#8359812
0!
#8364625
1"
#8369250
0"
#8375250
1!
#8379875
1"
#8490687
0!
#8545375
0"
#8555875
1"
#8562062
1!
#8579187
0!
#8583875
0"
#8600437
1"
#8605125
0"
#8611500
1!
#8616312
1"
#8621000
0"
#8627250
0!
#8632062
1"
#8636750
0"
#8647812
1"
#8652500
0"
#8663562
1"
#8668250
0"
#8679312
1"
#8684000
0"
#8690375
1!
#8695187
1"
#8699875
0"
#8711062
1"
#8715687
0"
#8726312
1"
#8837125
0!
#8892125
0"
#8898500
1!
#8903312
1"
#8908000
0"
#8919187
1"
#8923875
0"
#8935062
1"
#8939750
0"
#8950937
1"
#8955625
0"
#8966812
1"
#8971500
0"
#8982687
1"
#8987375
0"
#8993625
0!
#8998437
1"
#9003125
0"
#9014187
1"
#9018812
0"
#9024812
1!
#9029437
1"
#9140250
0!
#9194937
0"
#9205437
1"
#9211625
1!
#9228750
0!
#9233437
0"
#9256000
1"
#9260687
0"
#9267062
1!
#9271875
1"
#9276562
0"
#9282812
0!
#9287625
1"
#9292312
0"
#9298687
1!
#9303500
1"
#9308187
0"
#9314437
0!
#9319250
1"
#9323937
0"
#9335000
1"
#9339687
0"
#9350750
1"
#9355437
0"
#9361812
1!
#9366625
1"
#9371250
0"
#9381875
1"
#9492687
0!
#9547562
0"
#9558062
1"
#9564250
1!
#9583000
0!
#9587687
0"
#9604187
1"
#9608875
0"
#9619937
1"
#9624625
0"
#9631000
1!
#9635812
1"
#9640500
0"
#9646750
0!
#9651562
1"
#9656250
0"
#9667312
1"
#9672000
0"
#9683062
1"
#9687750
0"
#9694125
1!
#9698937
1"
#9703625
0"
#9709875
0!
#9714687
1"
#9719312
0"
#9725312
1!
#9729937
1"
#9840750
0!
#9895437
0"
#9905937
1"
#9912125
1!
#9929250
0!
#9933937
0"
#9945812
1!
#9950625
1"
#9955312
0"
#9966500
1"
#9971187
0"
#9977437
0!
#9982250
1"
#9986937
0"
#9998000
1"
#10002687
0"
#10013750
1"
#10018437
0"
#10029500
1"
#10034187
0"
#10040562
1!
#10045375
1"
#10050062
0"
#10061250
1"
#10065875
0"
#10076500
1"
#10187312
0!
#10242312
0"
#10248687
1!
#10253500
1"
#10258187
0"
#10269375
1"
#10280062
0"
#10291250
1"
#10295937
0"
#10307125
1"
#10311812
0"
#10323000
1"
#10327687
0"
#10338875
1"
#10343562
0"
#10349812
0!
#10354625
1"
#10359312
0"
#10370375
1"
#10375000
0"
#10381000
1!
#10385625
1"
#10496437
0!
#10551125
0"
#10561625
1"
#10567812
1!
#10584937
0!
#10589625
0"
#10606187
1"
#10610875
0"
#10617250
1!
#10622062
1"
#10626750
0"
#10633000
0!
#10637812
1"
#10642500
0"
#10648875
1!
#10653687
1"
#10658375
0"
#10664625
0!
#10669437
1"
#10674125
0"
#10685187
1"
#10689875
0"
#10700937
1"
#10705625
0"
#10712000
1!
#10716812
1"
#10721437
0"
#10732062
1"
#10842875
0!
#10897750
0"
#10908250
1"
#10914437
1!
#110963250
0!
#110967937
0"
#110984437
1"
#110989125
0"
#111000187
1"
#111004875
0"
#111011250
1!
#111016062
1"
#111020750
0"
#111027000
0!
#111031812
1"
#111036500
0"
#111047562
1"
#111052250
0"
#111063312
1"
#111068000
0"
#111074375
1!
#111079187
1"
#111083875
0"
#111090125
0!
#111094937
1"
#111099562
0"
#111105562
1!
#111110187
1"
#111221000
0!
#111275687
0"
#111286187
1"
#111292375
1!
#111309500
0!
#111314187
0"
#111330750
1"
#111335437
0"
#111346500
1"
#111351187
0"
#111362250
1"
#111366937
0"
#111378000
1"
#111382687
0"
#111393750
1"
#111398437
0"
#111409500
1"
#111414187
0"
#111420562
1!
#111425375
1"
#111430062
0"
#111441250
1"
#111445875
0"
#111456500
1"
#111567312
0!
#111622312
0"
#111628687
1!
#111633500
1"
#111638187
0"
#111655375
1"
#111660062
0"
#111671250
1"
#111675937
0"
#111687125
1"
#111691812
0"
#111703000
1"
#111707687
0"
#111718875
1"
#111723562
0"
#111729812
0!
#111734625
1"
#111739312
0"
#111750375
1"
#111755000
0"
#111761000
1!
#111765625
1"
#111876437
0!
#111931125
0"
#111941625
1"
#111947812
1!
#111964937
0!
#111969625
0"
#111986187
1"
#111990875
0"
#111997250
1!
#112002062
1"
#112006750
0"
#112013000
0!
#112017812
1"
#112022500
0"
#112028875
1!
#112033687
1"
#112038375
0"
#112044625
0!
#112049437
1"
#112054125
0"
#112065187
1"
#112069875
0"
#112080937
1"
#112085625
0"
#112092000
1!
#112096812
1"
#112101437
0"
#112112062
1"
#112222875
0!
#112277750
0"
#112288250
1"
#112294437
1!
#112338062
0!
#112342750
0"
#112359250
1"
#112363937
0"
#112375000
1"
#112379687
0"
#112386062
1!
#112390875
1"
#112395562
0"
#112401812
0!
#112406625
1"
#112411312
0"
#112422375
1"
#112427062
0"
#112438125
1"
#112442812
0"
#112449187
1!
#112454000
1"
#112458687
0"
#112464937
0!
#112469750
1"
#112474375
0"
#112480375
1!
#112485000
1"
#112595812
0!
#112650500
0"
#112661000
1"
#112667187
1!
#112690312
0!
#112695000
0"
#112706875
1!
#112711687
1"
#112716375
0"
#112722625
0!
#112727437
1"
#112732125
0"
#112743187
1"
#112747875
0"
#112758937
1"
#112763625
0"
#112774687
1"
#112779375
0"
#112790437
1"
#112795125
0"
#112801500
1!
#112806312
1"
#112811000
0"
#112822187
1"
#112826812
0"
#112837437
1"
#112948250
0!
#113003250
0"
#113009625
1!
#113014437
1"
#113019125
0"
#113030312
1"
#113035000
0"
#113046187
1"
#113050875
0"
#113062062
1"
#113066750
0"
#113077937
1"
#113082625
0"
#113093812
1"
#113098500
0"
#113104750
0!
#113109562
1"
#113114250
0"
#113125312
1"
#113129937
0"
#113135937
1!
#113140562
1"
#113251375
0!
#113306062
0"
#113316562
1"
#113322750
1!
#113339875
0!
#113344562
0"
#113361125
1"
#113365812
0"
#113372187
1!
#113377000
1"
#113381687
0"
#113387937
0!
#113392750
1"
#113397437
0"
#113403812
1!
#113408625
1"
#113413312
0"
#113419562
0!
#113424375
1"
#113429062
0"
#113440125
1"
#113444812
0"
#113455875
1"
#113460562
0"
#113466937
1!
#113471750
1"
#113476375
0"
#113487000
1"
#113597812
0!
#113652687
0"
#113663187
1"
#113669375
1!
#113719062
0!
#113723750
0"
#113740250
1"
#113744937
0"
#113756000
1"
#113760687
0"
#113767062
1!
#113771875
1"
#113776562
0"
#113782812
0!
#113787625
1"
#113792312
0"
#113803375
1"
#113808062
0"
#113819125
1"
#113823812
0"
#113830187
1!
#113835000
1"
#113839687
0"
#113845937
0!
#113850750
1"
#113855375
0"
#113861375
1!
#113866000
1"
#113976812
0!
#114031500
0"
#114042000
1"
#114048187
1!
#114065312
0!
#114070000
0"
#114086562
1"
#114091250
0"
#114097625
1!
#114102437
1"
#114107125
0"
#114113375
0!
#114118187
1"
#114122875
0"
#114133937
1"
#114138625
0"
#114149687
1"
#114154375
0"
#114165437
1"
#114170125
0"
#114176500
1!
#114181312
1"
#114186000
0"
#114197187
1"
#114201812
0"
#114212437
1"
#114323250
0!
#114378250
0"
#114384625
1!
#114389437
1"
#114394125
0"
#114405312
1"
#114410000
0"
#114421187
1"
#114425875
0"
#114437062
1"
#114441750
0"
#114452937
1"
#114457625
0"
#114468812
1"
#114473500
0"
#114479750
0!
#114484562
1"
#114489250
0"
#114500312
1"
#114504937
0"
#114510937
1!
#114515562
1"
#114626375
0!
#114681062
0"
#114691562
1"
#114697750
1!
#114714875
0!
#114725562
0"
#114742125
1"
#114746812
0"
#114753187
1!
#114758000
1"
#114762687
0"
#114768937
0!
#114773750
1"
#114778437
0"
#114784812
1!
#114789625
1"
#114794312
0"
#114800562
0!
#114805375
1"
#114810062
0"
#114821125
1"
#114825812
0"
#114836875
1"
#114841562
0"
#114847937
1!
#114852750
1"
#114857375
0"
#114868000
1"
#114978812
0!
#115033687
0"
#115044187
1"
#115050375
1!
#115069125
0!
#115073812
0"
#115090312
1"
#115095000
0"
#115106062
1"
#115110750
0"
#115117125
1!
#115121937
1"
#115126625
0"
#115132875
0!
#115137687
1"
#115142375
0"
#115153437
1"
#115158125
0"
#115169187
1"
#115173875
0"
#115180250
1!
#115185062
1"
#115189750
0"
#115196000
0!
#115200812
1"
#115205437
0"
#115211437
1!
#115216062
1"
#115326875
0!
#115381562
0"
#115392062
1"
#115398250
1!
#115415375
0!
#115420062
0"
#115431937
1!
#115436750
1"
#115441437
0"
#115452625
1"
#115457312
0"
#115463562
0!
#115468375
1"
#115473062
0"
#115484125
1"
#115488812
0"
#115499875
1"
#115504562
0"
#115515625
1"
#115520312
0"
#115526687
1!
#115531500
1"
#115536187
0"
#115547375
1"
#115552000
0"
#115562625
1"
#115673437
0!
#115728437
0"
#115739500
1"
#115750187
0"
#115756562
1!
#115761375
1"
#115766062
0"
#115777250
1"
#115781937
0"
#115788187
0!
#115793000
1"
#115797687
0"
#115808750
1"
#115813437
0"
#115824500
1"
#115829187
0"
#115840250
1"
#115844937
0"
#115856000
1"
#115860625
0"
#115866625
1!
#115871250
1"
#115982062
0!
#116036750
0"
#116047250
1"
#116053437
1!
#116070562
0!
#116075250
0"
#116091812
1"
#116096500
0"
#116102875
1!
#116107687
1"
#116112375
0"
#116118625
0!
#116123437
1"
#116128125
0"
#116134500
1!
#116139312
1"
#116144000
0"
#116150250
0!
#116155062
1"
#116159750
0"
#116170812
1"
#116175500
0"
#116186562
1"
#116191250
0"
#116197625
1!
#116202437
1"
#116207062
0"
#116217687
1"
#116328500
0!
#116383375
0"
#116393875
1"
#116400062
1!
#216449000
0!
#216453687
0"
#216470187
1"
#216474875
0"
#216485937
1"
#216490625
0"
#216497000
1!
#216501812
1"
#216506500
0"
#216512750
0!
#216517562
1"
#216522250
0"
#216533312
1"
#216538000
0"
#216549062
1"
#216553750
0"
#216560125
1!
#216564937
1"
#216569625
0"
#216575875
0!
#216580687
1"
#216585312
0"
#216591312
1!
#216595937
1"
#216706750
0!
#216761437
0"
#216771937
1"
#216778125
1!
#216795250
0!
#216799937
0"
#216816500
1"
#216821187
0"
#216832250
1"
#216836937
0"
#216848000
1"
#216852687
0"
#216863750
1"
#216868437
0"
#216879500
1"
#216884187
0"
#216895250
1"
#216899937
0"
#216906312
1!
#216911125
1"
#216915812
0"
#216927000
1"
#216931625
0"
#216942250
1"
#217053062
0!
#217108062
0"
#217114437
1!
#217125250
1"
#217129937
0"
#217141125
1"
#217145812
0"
#217157000
1"
#217161687
0"
#217172875
1"
#217177562
0"
#217188750
1"
#217193437
0"
#217204625
1"
#217209312
0"
#217215562
0!
#217220375
1"
#217225062
0"
#217236125
1"
#217240750
0"
#217246750
1!
#217251375
1"
#217362187
0!
#217416875
0"
#217427375
1"
#217433562
1!
#217450687
0!
#217455375
0"
#217471937
1"
#217476625
0"
#217483000
1!
#217487812
1"
#217492500
0"
#217498750
0!
#217503562
1"
#217508250
0"
#217514625
1!
#217519437
1"
#217524125
0"
#217530375
0!
#217535187
1"
#217539875
0"
#217550937
1"
#217555625
0"
#217566687
1"
#217571375
0"
#217577750
1!
#217582562
1"
#217587187
0"
#217597812
1"
#217708625
0!
#217763500
0"
#217774000
1"
#217780187
1!
#217823812
0!
#217828500
0"
#217845000
1"
#217849687
0"
#217860750
1"
#217865437
0"
#217871812
1!
#217876625
1"
#217881312
0"
#217887562
0!
#217892375
1"
#217897062
0"
#217908125
1"
#217912812
0"
#217923875
1"
#217928562
0"
#217934937
1!
#217939750
1"
#217944437
0"
#217950687
0!
#217955500
1"
#217960125
0"
#217966125
1!
#217970750
1"
#218081562
0!
#218136250
0"
#218152750
1"
#218158937
1!
#218176062
0!
#218180750
0"
#218192625
1!
#218197437
1"
#218202125
0"
#218208375
0!
#218213187
1"
#218217875
0"
#218228937
1"
#218233625
0"
#218244687
1"
#218249375
0"
#218260437
1"
#218265125
0"
#218276187
1"
#218280875
0"
#218287250
1!
#218292062
1"
#218296750
0"
#218307937
1"
#218312562
0"
#218323187
1"
#218434000
0!
#218489000
0"
#218495375
1!
#218500187
1"
#218504875
0"
#218516062
1"
#218520750
0"
#218531937
1"
#218536625
0"
#218547812
1"
#218552500
0"
#218563687
1"
#218568375
0"
#218579562
1"
#218584250
0"
#218590500
0!
#218595312
1"
#218600000
0"
#218611062
1"
#218615687
0"
#218621687
1!
#218626312
1"
#218737125
0!
#218791812
0"
#218802312
1"
#218808500
1!
#218825625
0!
#218830312
0"
#218846875
1"
#218851562
0"
#218857937
1!
#218862750
1"
#218867437
0"
#218873687
0!
#218878500
1"
#218883187
0"
#218889562
1!
#218894375
1"
#218899062
0"
#218905312
0!
#218910125
1"
#218914812
0"
#218925875
1"
#218930562
0"
#218941625
1"
#218946312
0"
#218952687
1!
#218957500
1"
#218962125
0"
#218972750
1"
#219083562
0!
#219138437
0"
#219148937
1"
#219155125
1!
#219204812
0!
#219209500
0"
#219226000
1"
#219230687
0"
#219241750
1"
#219246437
0"
#219252812
1!
#219257625
1"
#219262312
0"
#219268562
0!
#219273375
1"
#219278062
0"
#219289125
1"
#219293812
0"
#219304875
1"
#219309562
0"
#219315937
1!
#219320750
1"
#219325437
0"
#219331687
0!
#219336500
1"
#219341125
0"
#219347125
1!
#219351750
1"
#219462562
0!
#219517250
0"
#219527750
1"
#219533937
1!
#219551062
0!
#219555750
0"
#219572312
1"
#219577000
0"
#219583375
1!
#219588187
1"
#219592875
0"
#219599125
0!
#219603937
1"
#219608625
0"
#219619687
1"
#219624375
0"
#219635437
1"
#219640125
0"
#219651187
1"
#219655875
0"
#219662250
1!
#219667062
1"
#219671750
0"
#219682937
1"
#219687562
0"
#219698187
1"
#219809000
0!
#219864000
0"
#219870375
1!
#219875187
1"
#219879875
0"
#219891062
1"
#219895750
0"
#219906937
1"
#219911625
0"
#219922812
1"
#219927500
0"
#219938687
1"
#219943375
0"
#219954562
1"
#219959250
0"
#219965500
0!
#219970312
1"
#219975000
0"
#219986062
1"
#219990687
0"
#219996687
1!
#220001312
1"
#220112125
0!
#220166812
0"
#220177312
1"
#220183500
1!
#220206625
0!
#220211312
0"
#220227875
1"
#220232562
0"
#220238937
1!
#220243750
1"
#220248437
0"
#220254687
0!
#220259500
1"
#220264187
0"
#220270562
1!
#220275375
1"
#220280062
0"
#220286312
0!
#220291125
1"
#220295812
0"
#220306875
1"
#220311562
0"
#220322625
1"
#220327312
0"
#220333687
1!
#220338500
1"
#220343125
0"
#220353750
1"
#220464562
0!
#220519437
0"
#220529937
1"
#220536125
1!
#220554875
0!
#220559562
0"
#220576062
1"
#220580750
0"
#220591812
1"
#220596500
0"
#220602875
1!
#220607687
1"
#220612375
0"
#220618625
0!
#220623437
1"
#220628125
0"
#220639187
1"
#220643875
0"
#220654937
1"
#220659625
0"
#220666000
1!
#220670812
1"
#220675500
0"
#220681750
0!
#220686562
1"
#220691187
0"
#220697187
1!
#220701812
1"
#220812625
0!
#220867312
0"
#220877812
1"
#220884000
1!
#220901125
0!
#220905812
0"
#220917687
1!
#220922500
1"
#220927187
0"
#220938375
1"
#220943062
0"
#220949312
0!
#220954125
1"
#220958812
0"
#220969875
1"
#220974562
0"
#220985625
1"
#220990312
0"
#221001375
1"
#221006062
0"
#221012437
1!
#221017250
1"
#221021937
0"
#221033125
1"
#221037750
0"
#221048375
1"
#221159187
0!
#221220187
0"
#221226562
1!
#221231375
1"
#221236062
0"
#221247250
1"
#221251937
0"
#221258187
0!
#221263000
1"
#221267687
0"
#221274062
1!
#221278875
1"
#221283562
0"
#221294750
1"
#221299437
0"
#221305687
0!
#221310500
1"
#221315187
0"
#221321562
1!
#221326375
1"
#221331062
0"
#221337312
0!
#221342125
1"
#221346750
0"
#221352750
1!
#221357375
1"
#221468187
0!
#221522875
0"
#221533375
1"
#221539562
1!
#221556687
0!
#221561375
0"
#221577937
1"
#221582625
0"
#221589000
1!
#221593812
1"
#221598500
0"
#221604750
0!
#221609562
1"
#221614250
0"
#221620625
1!
#221625437
1"
#221630125
0"
#221636375
0!
#221641187
1"
#221645875
0"
#221656937
1"
#221661625
0"
#221672687
1"
#221677375
0"
#221683750
1!
#221688562
1"
#221693187
0"
#221703812
1"
#221814625
0!
#221869500
0"
#221880000
1"
#221886187
1!
#321934687
0!
#321939375
0"
#321955875
1"
#321960562
0"
#321971625
1"
#321976312
0"
#321982687
1!
#321987500
1"
#321992187
0"
#321998437
0!
#322003250
1"
#322007937
0"
#322019000
1"
#322023687
0"
#322034750
1"
#322039437
0"
#322045812
1!
#322050625
1"
#322055312
0"
#322061562
0!
#322066375
1"
#322071000
0"
#322077000
1!
#322081625
1"
#322192437
0!
#322247125
0"
#322257625
1"
#322263812
1!
#322280937
0!
#322285625
0"
#322302187
1"
#322306875
0"
#322317937
1"
#322322625
0"
#322333687
1"
#322338375
0"
#322349437
1"
#322354125
0"
#322365187
1"
#322369875
0"
#322380937
1"
#322385625
0"
#322392000
1!
#322396812
1"
#322401500
0"
#322412687
1"
#322417312
0"
#322427937
1"
#322538750
0!
#322599750
0"
#322606125
1!
#322610937
1"
#322615625
0"
#322626812
1"
#322631500
0"
#322642687
1"
#322647375
0"
#322658562
1"
#322663250
0"
#322674437
1"
#322679125
0"
#322690312
1"
#322695000
0"
#322701250
0!
#322706062
1"
#322710750
0"
#322721812
1"
#322726437
0"
#322732437
1!
#322737062
1"
#322847875
0!
#322902562
0"
#322913062
1"
#322919250
1!
#322936375
0!
#322941062
0"
#322957625
1"
#322962312
0"
#322968687
1!
#322973500
1"
#322978187
0"
#322984437
0!
#322989250
1"
#322993937
0"
#323000312
1!
#323005125
1"
#323009812
0"
#323016062
0!
#323020875
1"
#323025562
0"
#323036625
1"
#323041312
0"
#323052375
1"
#323057062
0"
#323063437
1!
#323068250
1"
#323072875
0"
#323083500
1"
#323194312
0!
#323249187
0"
#323259687
1"
#323265875
1!
#323309500
0!
#323314187
0"
#323330687
1"
#323335375
0"
#323346437
1"
#323351125
0"
#323357500
1!
#323362312
1"
#323367000
0"
#323373250
0!
#323378062
1"
#323382750
0"
#323393812
1"
#323398500
0"
#323409562
1"
#323414250
0"
#323420625
1!
#323425437
1"
#323430125
0"
#323436375
0!
#323441187
1"
#323445812
0"
#323451812
1!
#323456437
1"
#323567250
0!
#323627937
0"
#323638437
1"
#323644625
1!
#323661750
0!
#323666437
0"
#323678312
1!
#323683125
1"
#323687812
0"
#323694062
0!
#323698875
1"
#323703562
0"
#323714625
1"
#323719312
0"
#323730375
1"
#323735062
0"
#323746125
1"
#323750812
0"
#323761875
1"
#323766562
0"
#323772937
1!
#323777750
1"
#323782437
0"
#323793625
1"
#323798250
0"
#323808875
1"
#323919687
0!
#323974687
0"
#323981062
1!
#323985875
1"
#323990562
0"
#324001750
1"
#324006437
0"
#324017625
1"
#324022312
0"
#324033500
1"
#324038187
0"
#324049375
1"
#324054062
0"
#324065250
1"
#324069937
0"
#324076187
0!
#324081000
1"
#324085687
0"
#324096750
1"
#324101375
0"
#324107375
1!
#324112000
1"
#324222812
0!
#324277500
0"
#324288000
1"
#324294187
1!
#324311312
0!
#324316000
0"
#324332562
1"
#324337250
0"
#324343625
1!
#324348437
1"
#324353125
0"
#324359375
0!
#324364187
1"
#324368875
0"
#324375250
1!
#324380062
1"
#324384750
0"
#324391000
0!
#324395812
1"
#324400500
0"
#324411562
1"
#324416250
0"
#324427312
1"
#324432000
0"
#324438375
1!
#324443187
1"
#324447812
0"
#324458437
1"
#324569250
0!
#324624125
0"
#324634625
1"
#324646812
1!
#324690500
0!
#324695187
0"
#324711687
1"
#324716375
0"
#324727437
1"
#324732125
0"
#324738500
1!
#324743312
1"
#324748000
0"
#324754250
0!
#324759062
1"
#324763750
0"
#324774812
1"
#324779500
0"
#324790562
1"
#324795250
0"
#324801625
1!
#324806437
1"
#324811125
0"
#324817375
0!
#324822187
1"
#324826812
0"
