2024-04-05_FCSC-2024/05. hardware/Golgrot13/challenge_files/golgrot13.vcd
$timescale 1ns $end
$scope module logic $end
$var wire 1 ! D0 $end
$var wire 1 " D1 $end
$upscope $end
$enddefinitions $end
#0
1!
#0
0"
#0
1"
#1252937
0!
#1261437
1!
#1278437
0!
#1312437
1!
#1320937
0!
#1329437
1!
#1335402
0"
#1342375
0!
#1344083
1"
#1350875
1!
#1359375
0!
#1361445
0"
#1376375
1!
#1378807
1"
#1387488
0"
#1396169
1"
#1404850
0"
#1410375
0!
#1413531
1"
#1418875
1!
#1422212
0"
#1431937
0!
#1448937
1!
#1457437
0!
#1465617
1"
#1474298
0"
#1474437
1!
#1482979
1"
#1491660
0"
#1499937
0!
#1500341
1"
#1508437
1!
#1509022
0"
#1521312
0!
#1526384
1"
#1538312
1!
#1543746
0"
#1563812
0!
#1569789
1"
#1572312
1!
#1578470
0"
#1587151
1"
#1589312
0!
#1595832
0"
#1597812
1!
#1610687
0!
#1627687
1!
#1639237
1"
#1644687
0!
#1647918
0"
#1656599
1"
#1661687
1!
#1665280
0"
#1673961
1"
#1678687
0!
#1682642
0"
#1687187
1!
#1691323
1"
#1700062
0!
#1708685
0"
#1717062
1!
#1717366
1"
#1725562
0!
#1742562
1!
#1752090
0"
#1760771
1"
#1768062
0!
#1769452
0"
#1776562
1!
#1786814
1"
#1789437
0!
#1804176
0"
#1812857
1"
#1814937
1!
#1830219
0"
#1831937
0!
#1840437
1!
#1847581
1"
#1848937
0!
#1856262
0"
#1865937
1!
#1878875
0!
#1882305
1"
#1890986
0"
#1899667
1"
#1917029
0"
#1929875
1!
#1934391
1"
#1938375
0!
#1943072
0"
#1951753
1"
#1955375
1!
#1960434
0"
#1968312
0!
#1977796
1"
#1993812
1!
#2002312
0!
#2003839
0"
#2010812
1!
#2021201
1"
#2029882
0"
#2036312
0!
#2044812
1!
#2047244
1"
#2055925
0"
#2057687
0!
#2073287
1"
#2074687
1!
#2091687
0!
#2099330
0"
#2100187
1!
#2108011
1"
#2116692
0"
#2125687
0!
#2134054
1"
#2134187
1!
#2147062
0!
#2155562
1!
#2160097
0"
#2164062
0!
#2168778
1"
#2181062
1!
#2186140
0"
#2189562
0!
#2194821
1"
#2198062
1!
#2203502
0"
#2212183
1"
#2215062
0!
#2220864
0"
#2223562
1!
#2236437
0!
#2246907
1"
#2253437
1!
#2261937
0!
#2272950
0"
#2278937
1!
#2281631
1"
#2290312
0"
#2304437
0!
#2307674
1"
#2312937
1!
#2325812
0!
#2333717
0"
#2342398
1"
#2359760
0"
#2368441
1"
#2376812
1!
#2377122
0"
#2385312
0!
#2394484
1"
#2402312
1!
#2403165
0"
#2415187
0!
#2420527
1"
#2432187
1!
#2437889
0"
#2440687
0!
#2449187
1!
#2455251
1"
#2463932
0"
#2483187
0!
#2491687
1!
#2504562
0!
#2507337
1"
#2521562
1!
#2524699
0"
#2530062
0!
#2542061
1"
#2547062
1!
#2550742
0"
#2559423
1"
#2568104
0"
#2572562
0!
#2581062
1!
#2585466
1"
#2593937
0!
#2611509
0"
#2628871
1"
#2637552
0"
#2644937
1!
#2653437
0!
#2654914
1"
#2663595
0"
#2670437
1!
#2680957
1"
#2683312
0!
#2691812
1!
#2698319
0"
#2715681
1"
#2717312
0!
#2724362
0"
#2733043
1"
#2734312
1!
#2741724
0"
#2751312
0!
#2759812
1!
#2767767
1"
#2772687
0!
#2781187
1!
#2785129
0"
#2789687
0!
#2798187
1!
#2802491
1"
#2806687
0!
#2811172
0"
#2815187
1!
#2819853
1"
#2828534
0"
#2840687
0!
#2845896
1"
#2849187
1!
#2862312
0!
#2871939
0"
#2879312
1!
#2887812
0!
#2889301
1"
#2897982
0"
#2904812
1!
#2906663
1"
#2915344
0"
#2924025
1"
#2930312
0!
#2932706
0"
#2938812
1!
#2941387
1"
#2951687
0!
#2958749
0"
#2976111
1"
#2984792
0"
#2993473
1"
#3002154
0"
#3002687
1!
#3011187
0!
#3019516
1"
#3028187
1!
#3041125
0!
#3045559
0"
#3049625
1!
#3062921
1"
#3066625
0!
#3071602
0"
#3080283
1"
#3083625
1!
#3088964
0"
#3109125
0!
#3115007
1"
#3117625
1!
#3130562
0!
#3139062
1!
#3141050
0"
#3147562
0!
#3149731
1"
#3158412
0"
#3164562
1!
#3175774
1"
#3184455
0"
#3198562
0!
#3201817
1"
#3207062
1!
#3220062
0!
#3227860
0"
#3236541
1"
#3237062
1!
#3245222
0"
#3262562
0!
#3262584
1"
#3271062
1!
#3271265
0"
#3288062
0!
#3288627
1"
#3296562
1!
#3309437
0!
#3314670
0"
#3323351
1"
#3332032
0"
#3334937
1!
#3343437
0!
#3351937
1!
#3358075
1"
#3366756
0"
#3375437
1"
#3377437
0!
#3385937
1!
#3392799
0"
#3398812
0!
#3407312
1!
#3410161
1"
#3415812
0!
#3418842
0"
#3449812
1!
#3453566
1"
#3458312
0!
#3475312
1!
#3479609
0"
#3488250
0!
#3496750
1!
#3496971
1"
#3505250
0!
#3505652
0"
#3513750
1!
#3523014
1"
#3530750
0!
#3540376
0"
#3549057
1"
#3564750
1!
#3566419
0"
#3577687
0!
#3583781
1"
#3592462
0"
#3594687
1!
#3601143
1"
#3603187
0!
#3611687
1!
#3618505
0"
#3620187
0!
#3635867
1"
#3654187
1!
#3661910
0"
#3670591
1"
#3679272
0"
#3722677
1"
#3740039
0"
#3757401
1"
#3766082
0"
#3783444
1"
#3792125
0"
#3809487
1"
#3835530
0"
#3844211
1"
#3852892
0"
#3896297
1"
#3922340
0"
#3931021
1"
#3939702
0"
#3957064
1"
#3965745
0"
#3983107
1"
#4009150
0"
#4017831
1"
#4026512
0"
#4035193
1"
#4061236
0"
#4069917
1"
#4087279
0"
#4104641
1"
#4113322
0"
#4122003
1"
#4130684
0"
#4156727
1"
#4182770
0"
#4191451
1"
#4200132
0"
#4208813
1"
#4234856
0"
#4243537
1"
#4260899
0"
#4278261
1"
#4286942
0"
#4295623
1"
#4312985
0"
#4330347
1"
#4356390
0"
#4365071
1"
#4373752
0"
#4408476
1"
#4434519
0"
#4451881
1"
#4460562
0"
#4469243
1"
#4477924
0"
#4495286
1"
#4521329
0"
#4538691
1"
#4547372
0"
#4556053
1"
#4564734
0"
#4573415
1"
#4616820
0"
#4625501
1"
#518106625
1!
